Exp11/T1/test.vcd
$date
	Mon Feb  4 16:36:28 2019
$end
$version
	Icarus Verilog
$end
$timescale
	1s
$end
$scope module test_mux $end
$var wire 1 ! out2 $end
$var wire 1 " out1 $end
$var reg 4 # I [3:0] $end
$var reg 2 $ s [1:0] $end
$scope module DUT $end
$var wire 4 % I [3:0] $end
$var wire 2 & s [1:0] $end
$var wire 1 ! out $end
$upscope $end
$scope module DUT1 $end
$var wire 4 ' I [3:0] $end
$var wire 2 ( s [1:0] $end
$var reg 1 " out $end
$upscope $end
$upscope $end
$enddefinitions $end
#0
$dumpvars
bx (
bx '
bx &
bx %
bx $
bx #
x"
x!
$end
#10
0!
0"
b0 $
b0 &
b0 (
b0 #
b0 %
b0 '
#20
1!
1"
b1 #
b1 %
b1 '
#30
0!
0"
b10 #
b10 %
b10 '
#40
1!
1"
b11 #
b11 %
b11 '
#50
0!
0"
b100 #
b100 %
b100 '
#60
1!
1"
b101 #
b101 %
b101 '
#70
0!
0"
b110 #
b110 %
b110 '
#80
1!
1"
b111 #
b111 %
b111 '
#90
0!
0"
b1000 #
b1000 %
b1000 '
#100
1!
1"
b1001 #
b1001 %
b1001 '
#110
0!
0"
b1010 #
b1010 %
b1010 '
#120
1!
1"
b1011 #
b1011 %
b1011 '
#130
0!
0"
b1100 #
b1100 %
b1100 '
#140
1!
1"
b1101 #
b1101 %
b1101 '
#150
0!
0"
b1110 #
b1110 %
b1110 '
#160
1!
1"
b1111 #
b1111 %
b1111 '
#170
0!
0"
b1 $
b1 &
b1 (
b0 #
b0 %
b0 '
#180
b1 #
b1 %
b1 '
#190
1!
1"
b10 #
b10 %
b10 '
#200
b11 #
b11 %
b11 '
#210
0!
0"
b100 #
b100 %
b100 '
#220
b101 #
b101 %
b101 '
#230
1!
1"
b110 #
b110 %
b110 '
#240
b111 #
b111 %
b111 '
#250
0!
0"
b1000 #
b1000 %
b1000 '
#260
b1001 #
b1001 %
b1001 '
#270
1!
1"
b1010 #
b1010 %
b1010 '
#280
b1011 #
b1011 %
b1011 '
#290
0!
0"
b1100 #
b1100 %
b1100 '
#300
b1101 #
b1101 %
b1101 '
#310
1!
1"
b1110 #
b1110 %
b1110 '
#320
b1111 #
b1111 %
b1111 '
#330
0!
0"
b10 $
b10 &
b10 (
b0 #
b0 %
b0 '
#340
b1 #
b1 %
b1 '
#350
b10 #
b10 %
b10 '
#360
b11 #
b11 %
b11 '
#370
1!
1"
b100 #
b100 %
b100 '
#380
b101 #
b101 %
b101 '
#390
b110 #
b110 %
b110 '
#400
b111 #
b111 %
b111 '
#410
0!
0"
b1000 #
b1000 %
b1000 '
#420
b1001 #
b1001 %
b1001 '
#430
b1010 #
b1010 %
b1010 '
#440
b1011 #
b1011 %
b1011 '
#450
1!
1"
b1100 #
b1100 %
b1100 '
#460
b1101 #
b1101 %
b1101 '
#470
b1110 #
b1110 %
b1110 '
#480
b1111 #
b1111 %
b1111 '
#490
0!
0"
b11 $
b11 &
b11 (
b0 #
b0 %
b0 '
#500
b1 #
b1 %
b1 '
#510
b10 #
b10 %
b10 '
#520
b11 #
b11 %
b11 '
#530
b100 #
b100 %
b100 '
#540
b101 #
b101 %
b101 '
#550
b110 #
b110 %
b110 '
#560
b111 #
b111 %
b111 '
#570
1!
1"
b1000 #
b1000 %
b1000 '
#580
b1001 #
b1001 %
b1001 '
#590
b1010 #
b1010 %
b1010 '
#600
b1011 #
b1011 %
b1011 '
#610
b1100 #
b1100 %
b1100 '
#620
b1101 #
b1101 %
b1101 '
#630
b1110 #
b1110 %
b1110 '
#640
b1111 #
b1111 %
b1111 '
